C:\Users\YIGITALIEV\bringmeister\Master\pl_mobil\src\test\java\de\bring\pl_mobil\TestBase.java
C:\Users\YIGITALIEV\bringmeister\Master\pl_mobil\src\test\java\pageObjects\Kommissionierung.java
C:\Users\YIGITALIEV\bringmeister\Master\pl_mobil\src\test\java\pageObjects\Konsolidierung.java
C:\Users\YIGITALIEV\bringmeister\Master\pl_mobil\src\test\java\helper\MyAssert.java
C:\Users\YIGITALIEV\bringmeister\Master\pl_mobil\src\test\java\de\bring\pl_mobil\TestKommissionierung_2.java
C:\Users\YIGITALIEV\bringmeister\Master\pl_mobil\src\test\java\de\bring\pl_mobil\TestKonsolidierung.java
C:\Users\YIGITALIEV\bringmeister\Master\pl_mobil\src\test\java\helper\Report.java
C:\Users\YIGITALIEV\bringmeister\Master\pl_mobil\src\test\java\pageObjects\Portionierung.java
C:\Users\YIGITALIEV\bringmeister\Master\pl_mobil\src\test\java\helper\ExcelData.java
C:\Users\YIGITALIEV\bringmeister\Master\pl_mobil\src\test\java\de\bring\pl_mobil\TestLogin.java
C:\Users\YIGITALIEV\bringmeister\Master\pl_mobil\src\test\java\globals\Globals.java
C:\Users\YIGITALIEV\bringmeister\Master\pl_mobil\src\test\java\de\bring\pl_mobil\TestKommissionierung.java
C:\Users\YIGITALIEV\bringmeister\Master\pl_mobil\src\test\java\pageObjects\Login.java
C:\Users\YIGITALIEV\bringmeister\Master\pl_mobil\src\test\java\helper\Screenshot.java
C:\Users\YIGITALIEV\bringmeister\Master\pl_mobil\src\test\java\excelutils\ExcelUtil.java
C:\Users\YIGITALIEV\bringmeister\Master\pl_mobil\src\test\java\pageObjects\MainPage.java
C:\Users\YIGITALIEV\bringmeister\Master\pl_mobil\src\test\java\de\bring\pl_mobil\TestPortionierung.java
C:\Users\YIGITALIEV\bringmeister\Master\pl_mobil\src\test\java\pageObjects\MenueWaage.java
